%YAML 1.1
%TAG !u! tag:unity3d.com,2011:
--- !u!78 &1
TagManager:
  serializedVersion: 2
  tags:
  - ForcePoint
  layers:
  - Default
  - TransparentFX
  - Ignore Raycast
  - 
  - Water
  - UI
  - 
  - 
  - ForcePoint
  - EdgeForcePoint
  - CenterPoint
  - 
  - 
  - 
  - 
  - 
  - 
  - 
  - 
  - 
  - 
  - 
  - 
  - 
  - 
  - 
  - 
  - 
  - 
  - 
  - 
  - 
  m_SortingLayers:
  - name: Default
    uniqueID: 0
    locked: 0
  - name: Evironment
    uniqueID: 4137342455
    locked: 0
  - name: Object
    uniqueID: 1424630923
    locked: 0
  - name: Particles
    uniqueID: 4092435259
    locked: 0
  - name: Overlay
    uniqueID: 3705344315
    locked: 0
