
rain.png
size: 1024,256
format: RGBA8888
filter: Linear,Linear
repeat: none
layer_1
  rotate: false
  xy: 370, 41
  size: 283, 194
  orig: 283, 194
  offset: 0, 0
  index: -1
layer_3
  rotate: false
  xy: 2, 2
  size: 366, 233
  orig: 366, 233
  offset: 0, 0
  index: -1
